{
  "name": "modules",
  "options": {
    "idInjection": false,
    "mysql": {
      "schema": "lmsv2",
      "table": "tbl_module"
    }
  },
  "properties": {
    "moduleid": {
      "type": "Number",
      "id": 1,
      "required": true,
      "length": null,
      "precision": 19,
      "scale": 0,
      "mysql": {
        "columnName": "moduleId",
        "dataType": "bigint",
        "dataLength": null,
        "dataPrecision": 19,
        "dataScale": 0,
        "nullable": "N"
      }
    },
    "moduletype": {
      "type": "String",
      "required": true,
      "length": 5,
      "precision": null,
      "scale": null,
      "mysql": {
        "columnName": "moduleType",
        "dataType": "enum",
        "dataLength": 5,
        "dataPrecision": null,
        "dataScale": null,
        "nullable": "N"
      }
    },
    "modulefile": {
      "type": "String",
      "required": true,
      "length": 16777215,
      "precision": null,
      "scale": null,
      "mysql": {
        "columnName": "moduleFile",
        "dataType": "mediumtext",
        "dataLength": 16777215,
        "dataPrecision": null,
        "dataScale": null,
        "nullable": "N"
      }
    },
    "tenantKey": {
      "type": "String",
      "required": true,
      "length": 500,
      "precision": null,
      "scale": null,
      "mysql": {
        "columnName": "tenantKey",
        "dataType": "varchar",
        "dataLength": 500,
        "dataPrecision": null,
        "dataScale": null,
        "nullable": "N"
      }
    },
    "createddate": {
      "type": "Date",
      "required": true,
      "length": null,
      "precision": null,
      "scale": null,
      "mysql": {
        "columnName": "createdDate",
        "dataType": "datetime",
        "dataLength": null,
        "dataPrecision": null,
        "dataScale": null,
        "nullable": "N"
      }
    },
    "createdby": {
      "type": "Number",
      "required": true,
      "length": null,
      "precision": 19,
      "scale": 0,
      "mysql": {
        "columnName": "CreatedBy",
        "dataType": "bigint",
        "dataLength": null,
        "dataPrecision": 19,
        "dataScale": 0,
        "nullable": "N"
      }
    },
    "modifieddate": {
      "type": "Date",
      "required": true,
      "length": null,
      "precision": null,
      "scale": null,
      "mysql": {
        "columnName": "modifiedDate",
        "dataType": "timestamp",
        "dataLength": null,
        "dataPrecision": null,
        "dataScale": null,
        "nullable": "N"
      }
    },
    "modifiedby": {
      "type": "Number",
      "required": true,
      "length": null,
      "precision": 19,
      "scale": 0,
      "mysql": {
        "columnName": "modifiedBy",
        "dataType": "bigint",
        "dataLength": null,
        "dataPrecision": 19,
        "dataScale": 0,
        "nullable": "N"
      }
    },
    "isdeleted": {
      "type": "Number",
      "required": true,
      "length": null,
      "precision": 5,
      "scale": 0,
      "mysql": {
        "columnName": "isDeleted",
        "dataType": "smallint",
        "dataLength": null,
        "dataPrecision": 5,
        "dataScale": 0,
        "nullable": "N"
      }
    },
    "deleteddatetime": {
      "type": "Date",
      "required": true,
      "length": null,
      "precision": null,
      "scale": null,
      "mysql": {
        "columnName": "deletedDateTime",
        "dataType": "datetime",
        "dataLength": null,
        "dataPrecision": null,
        "dataScale": null,
        "nullable": "N"
      }
    }
  },
  "validations": [],
  "relations": {},
  "acls": [],
  "methods": {}
}
