{
  "_meta": {
    "sources": [
      "loopback/common/models",
      "loopback/server/models",
      "../common/models",
      "./models"
    ],
    "mixins": [
      "loopback/common/mixins",
      "loopback/server/mixins",
      "../common/mixins",
      "./mixins"
    ]
  },
  "User": {
    "dataSource": "mysqldb",
    "public": false
  },
  "AccessToken": {
    "dataSource": "mysqldb",
    "public": false
  },
  "ACL": {
    "dataSource": "mysqldb",
    "public": false
  },
  "RoleMapping": {
    "dataSource": "mysqldb",
    "public": false,
    "options": {
      "strictObjectIDCoercion": true
    }
  },
  "Role": {
    "dataSource": "mysqldb",
    "public": false
  },
  "Users": {
    "dataSource": "mysqldb",
    "public": true
  },
  "Session": {
    "dataSource": "mysqldb",
    "public": true
  },
  "TenantCompanies": {
    "dataSource": "mysqldb",
    "public": true
  },
  "Tenants": {
    "dataSource": "mysqldb",
    "public": true
  },
  "course": {
    "dataSource": "mysqldb",
    "public": true
  },
  "modules": {
    "dataSource": "mysqldb",
    "public": true
  },
  "Activities": {
    "dataSource": "mysqldb",
    "public": true
  },
  "EmailTemplates": {
    "dataSource": "mysqldb",
    "public": true
  },
  "Config": {
    "dataSource": "mysqldb",
    "public": true
  },
  "form": {
    "dataSource": "mysqldb",
    "public": true
  },
  "formQuestions": {
    "dataSource": "mysqldb",
    "public": true
  },
  "formCategoryMapping": {
    "dataSource": "mysqldb",
    "public": true
  },
  "formQuestionAnswer": {
    "dataSource": "mysqldb",
    "public": true
  },
  "formCategory": {
    "dataSource": "mysqldb",
    "public": true
  },
  "Category": {  
    "dataSource": "mysqldb",
    "public": true
  },
  "scorm": {
    "dataSource": "mysqldb",
    "public": true
  },
  "courseSettings": {
    "dataSource": "mysqldb",
    "public": true
  },
  "Team": {
    "dataSource": "mysqldb",
    "public": true
  },
  "PermissionGroups": {
    "dataSource": "mysqldb",
    "public": true
  },
  "Menu": {
    "dataSource": "mysqldb",
    "public": true
  }
}
